{
  "index": "/index.html",
  "assetGroups": [
    {
      "name": "app",
      "installMode": "prefetch",
      "resources": {
        "files": [
          "/",
          "/assets/**",
          "/aj_proptynews.ico",
          "/index.html",
          "/manifest.json",
          "/news/**"
        ],
        "versionedFiles": [
          "/*.bundle.css",
          "/*.bundle.js",
          "/*.chunk.js"
        ],
        "urls": [
          "https://fonts.googleapis.com/icon?family=Material+Icons",
          "https://fonts.googleapis.com/css?family=Lato:300,300i,400,400i,700,700i|Open+Sans:300,300i,400,400i,600,600i|Roboto:300,300i,400,400i,500,500i&amp;subset=greek,greek-ext,latin-ext,vietnamese",
          "https://cdnjs.cloudflare.com/ajax/libs/Chart.js/1.0.2/Chart.min.js"
        ]
      }
    },
    {
      "name": "assets",
      "installMode": "lazy",
      "updateMode": "prefetch",
      "resources": {
        "files": [
          "https://ajbnodej.localtunnel.me/images/**"
        ],
        "urls": []
      }
    },
    {
      "name": "fonts",
      "resources": {
        "urls": [
          "https://fonts.googleapis.com/**",
          "https://fonts.gstatic.com/**"
        ]
      }
    }
  ],
  "dataGroups": [
    {
      "name": "from-api-news-networkfirst",
      "urls": [
        "https://newsapi.org/v2/**"
      ],
      "cacheConfig": {
        "strategy": "freshness",
        "maxSize": 1000,
        "maxAge": "20d",
        "timeout": "2s"
      }
    },
    {
      "name": "from-api-news-shell",
      "urls": [],
      "cacheConfig": {
        "strategy": "performance",
        "maxSize": 10,
        "maxAge": "365d",
        "timeout": "2s"
      }
    },
    {
      "name": "from-api-ajbnodez-networkfirst",
      "urls": [
        "https://ajbnodez.localtunnel.me/**"
      ],
      "cacheConfig": {
        "strategy": "freshness",
        "maxSize": 1000,
        "maxAge": "60d",
        "timeout": "2s"
      }
    },
    {
      "name": "from-api-shell",
      "urls": [],
      "cacheConfig": {
        "strategy": "performance",
        "maxSize": 100,
        "maxAge": "60d",
        "timeout": "2s"
      }
    }
  ],
  "navigationUrls": []
}